[
	{
		"name": "GTA Online",
		"ports": "6672"
	},
	{
		"name": "Red Dead Online",
		"ports": "6672",
		"regex": "^1(?:04\\.255\\.10[4-7]|85\\.56\\.6[4-7]|92\\.81\\.24[0-7])\\.\\d{1,3}$"
	},
	{
		"name": "Dark Souls 3",
		"ports": "4380,27000-27031,27036"
	}
]
